VERIANALIZI
…
#02.05

#ETKILESIM 
#2 deienin yani cinsiyet ile yan birlikte etkisi var m yok mu bunu incelemek icin:
etksatis <- egitimveri%>%
  group_by(Gender,Age)%>% 
  summarise(Median=median(Revenue_Total))

## `summarise()` has grouped output by 'Gender'. You can override using the
## `.groups` argument.

etksatis

## # A tibble: 98 x 3
## # Groups:   Gender [2]
##    Gender   Age Median
##    <fct>  <dbl>  <dbl>
##  1 0         16   28.8
##  2 0         17   20  
##  3 0         18   31.3
##  4 0         19   39.1
##  5 0         20   32.3
##  6 0         21   23  
##  7 0         22   30.4
##  8 0         23   28.4
##  9 0         24   23.2
## 10 0         25   37.6
## # i 88 more rows
…
